division/test/sim_data.vcd
$date
	Sun Jun 19 09:19:47 2022
$end
$version
	Icarus Verilog
$end
$timescale
	1ns
$end
$scope module division_test $end
$var wire 12 ! remainder_snr [11:0] $end
$var wire 12 " remainder_r [11:0] $end
$var wire 12 # remainder_nr [11:0] $end
$var wire 12 $ remainder_ld2 [11:0] $end
$var wire 12 % remainder_ld [11:0] $end
$var wire 12 & quotient_snr [11:0] $end
$var wire 12 ' quotient_r [11:0] $end
$var wire 12 ( quotient_nr [11:0] $end
$var wire 12 ) quotient_ld2 [11:0] $end
$var wire 12 * quotient_ld [11:0] $end
$var wire 1 + error_div0_snr $end
$var wire 1 , error_div0_r $end
$var wire 1 - error_div0_nr $end
$var wire 1 . error_div0_ld2 $end
$var wire 1 / error_div0_ld $end
$var wire 1 0 data_ready_snr $end
$var wire 1 1 data_ready_r $end
$var wire 1 2 data_ready_nr $end
$var wire 1 3 data_ready_ld2 $end
$var wire 1 4 data_ready_ld $end
$var reg 1 5 aclk $end
$var reg 1 6 data_valid $end
$var reg 12 7 denominator [11:0] $end
$var reg 12 8 numerator [11:0] $end
$var reg 1 9 resetn $end
$scope module long_division_2_inst $end
$var wire 1 5 aclk $end
$var wire 1 6 data_valid $end
$var wire 12 : denominator [11:0] $end
$var wire 12 ; numerator [11:0] $end
$var wire 1 9 resetn $end
$var reg 1 3 data_ready $end
$var reg 12 < denominator_reg [11:0] $end
$var reg 3 = div_status [2:0] $end
$var reg 1 . error_div0 $end
$var reg 5 > index [4:0] $end
$var reg 12 ? numerator_reg [11:0] $end
$var reg 12 @ quotient [11:0] $end
$var reg 12 A quotient_temp [11:0] $end
$var reg 12 B remainder [11:0] $end
$var reg 12 C remainder_temp [11:0] $end
$upscope $end
$scope module long_division_inst $end
$var wire 1 5 aclk $end
$var wire 1 6 data_valid $end
$var wire 12 D denominator [11:0] $end
$var wire 12 E numerator [11:0] $end
$var wire 1 9 resetn $end
$var reg 1 4 data_ready $end
$var reg 12 F denominator_reg [11:0] $end
$var reg 3 G div_status [2:0] $end
$var reg 1 / error_div0 $end
$var reg 5 H index [4:0] $end
$var reg 12 I numerator_reg [11:0] $end
$var reg 12 J quotient [11:0] $end
$var reg 12 K quotient_temp [11:0] $end
$var reg 12 L remainder [11:0] $end
$var reg 12 M remainder_temp [11:0] $end
$upscope $end
$scope module non_restoring_division_inst $end
$var wire 1 5 aclk $end
$var wire 1 6 data_valid $end
$var wire 12 N denominator [11:0] $end
$var wire 12 O numerator [11:0] $end
$var wire 1 9 resetn $end
$var reg 1 2 data_ready $end
$var reg 24 P denominator_reg [23:0] $end
$var reg 3 Q div_status [2:0] $end
$var reg 1 - error_div0 $end
$var reg 5 R index [4:0] $end
$var reg 12 S quotient [11:0] $end
$var reg 12 T quotient_temp [11:0] $end
$var reg 12 U remainder [11:0] $end
$var reg 24 V remainder_temp [23:0] $end
$upscope $end
$scope module restoring_division_inst $end
$var wire 1 5 aclk $end
$var wire 1 6 data_valid $end
$var wire 12 W denominator [11:0] $end
$var wire 12 X numerator [11:0] $end
$var wire 1 9 resetn $end
$var reg 1 1 data_ready $end
$var reg 24 Y denominator_reg [23:0] $end
$var reg 3 Z div_status [2:0] $end
$var reg 1 , error_div0 $end
$var reg 5 [ index [4:0] $end
$var reg 12 \ quotient [11:0] $end
$var reg 12 ] quotient_temp [11:0] $end
$var reg 12 ^ remainder [11:0] $end
$var reg 24 _ remainder_temp [23:0] $end
$upscope $end
$scope module signed_non_restoring_division_inst $end
$var wire 1 5 aclk $end
$var wire 1 6 data_valid $end
$var wire 12 ` denominator [11:0] $end
$var wire 12 a numerator [11:0] $end
$var wire 1 9 resetn $end
$var reg 1 0 data_ready $end
$var reg 24 b denominator_reg [23:0] $end
$var reg 3 c div_status [2:0] $end
$var reg 1 + error_div0 $end
$var reg 5 d index [4:0] $end
$var reg 12 e quotient [11:0] $end
$var reg 12 f quotient_temp [11:0] $end
$var reg 12 g remainder [11:0] $end
$var reg 24 h remainder_temp [23:0] $end
$var reg 1 i sign $end
$upscope $end
$scope fork f1 $end
$upscope $end
$upscope $end
$enddefinitions $end
#0
$dumpvars
xi
bx h
bx g
bx f
bx e
bx d
bx c
bx b
b0 a
b0 `
bx _
bx ^
bx ]
bx \
bx [
bx Z
bx Y
b0 X
b0 W
bx V
bx U
bx T
bx S
bx R
bx Q
bx P
b0 O
b0 N
bx M
bx L
bx K
bx J
bx I
bx H
bx G
bx F
b0 E
b0 D
bx C
bx B
bx A
bx @
bx ?
bx >
bx =
bx <
b0 ;
b0 :
09
b0 8
b0 7
06
05
x4
x3
x2
x1
x0
x/
x.
x-
x,
x+
bx *
bx )
bx (
bx '
bx &
bx %
bx $
bx #
bx "
bx !
$end
#5
b0 G
0/
04
b0 F
b0 I
b0 M
b0 %
b0 L
b0 K
b0 *
b0 J
b1011 H
b0 =
0.
03
b0 <
b0 ?
b0 C
b0 $
b0 B
b0 A
b0 )
b0 @
b1011 >
b0 Z
0,
01
b0 Y
b0 _
b0 "
b0 ^
b0 ]
b0 '
b0 \
b1011 [
b0 Q
0-
02
b0 P
b0 V
b0 #
b0 U
b0 T
b0 (
b0 S
b1011 R
0i
b0 c
0+
00
b0 b
b0 h
b0 !
b0 g
b0 f
b0 &
b0 e
b1011 d
15
#10
05
#15
15
#20
05
#25
15
#30
05
#35
15
#40
05
#45
15
#50
05
#55
15
#60
05
#65
15
#70
05
#75
15
#80
05
#85
15
#90
05
#95
15
#100
05
19
#105
15
#110
05
#115
15
#120
05
#125
15
#130
05
#135
15
#140
05
#145
15
#150
05
#155
15
#160
05
#165
15
#170
05
#175
15
#180
05
#185
15
#190
05
#195
15
#200
05
16
b111111111011 `
b101 7
b101 :
b101 D
b101 N
b101 W
b110101010100 a
b1010101100 8
b1010101100 ;
b1010101100 E
b1010101100 O
b1010101100 X
#205
b101 F
b1010101100 I
b1 G
b101 <
b1010101100 ?
b10 =
b1010101100 _
b101000000000000 Y
b1 Z
b1010101100 V
b101000000000000 P
b1 Q
b1010101100 h
b101000000000000 b
b1 c
15
#210
05
06
#215
b1010 d
b111111111011010101011000 h
b100000000000 f
b1010 R
b111111111011010101011000 V
b100000000000 T
b111111111011010101011000 _
b10 Z
b1010 >
b10 G
15
#220
05
#225
b1010 H
b1 G
b1001 >
b1010 [
b10101011000 _
b1 Z
b1001 R
b111111111011101010110000 V
b1001 d
b111111111011101010110000 h
15
#230
05
#235
b1000 d
b111111111100010101100000 h
b1000 R
b111111111100010101100000 V
b111111111011101010110000 _
b10 Z
b1000 >
b10 G
15
#240
05
#245
b1001 H
b1 G
b111 >
b1001 [
b101010110000 _
b1 Z
b111 R
b111111111101101011000000 V
b111 d
b111111111101101011000000 h
15
#250
05
#255
b110 d
b10110000000 h
b110 R
b10110000000 V
b111111111100010101100000 _
b10 Z
b110 >
b1 M
b10 G
15
#260
05
#265
b1000 H
b1 G
b101 >
b1000 [
b1010101100000 _
b1 Z
b101 R
b111111111011101100000000 V
b100001000000 T
b101 d
b111111111011101100000000 h
b100001000000 f
15
#270
05
#275
b100 d
b111111111100011000000000 h
b100 R
b111111111100011000000000 V
b111111111101101011000000 _
b10 Z
b100 >
b10 M
b10 G
15
#280
05
#285
b111 H
b1 G
b11 >
b111 [
b10101011000000 _
b1 Z
b11 R
b111111111101110000000000 V
b11 d
b111111111101110000000000 h
15
#290
05
#295
b10 d
b100000000000 h
b10 R
b100000000000 V
b10110000000 _
b10 Z
b10 >
b101 M
b10 G
15
#300
05
#305
b110 H
b10000000 K
b0 M
b1 G
b1 >
b110 [
b10000000 ]
b1 Z
b1 R
b111111111100000000000000 V
b100001000100 T
b1 d
b111111111100000000000000 h
b100001000100 f
15
#310
05
#315
b0 d
b111111111101000000000000 h
b0 R
b111111111101000000000000 V
b111111111011101100000000 _
b10 Z
b0 >
b10 G
15
#320
05
#325
b101 H
b1 G
b11111 >
b11 =
b101 [
b101100000000 _
b1 Z
b11111 R
b111111111111000000000000 V
b10 Q
b11111 d
b111111111111000000000000 h
b10 c
15
#330
05
#335
10
b100 !
b100 g
b10001000 &
b10001000 e
b0 c
12
b100 #
b100 U
b10001000 (
b10001000 S
b0 Q
b111111111100011000000000 _
b10 Z
13
b0 =
b1 M
b10 G
15
#340
05
#345
b100 H
b1 G
03
b1011 >
b100 [
b1011000000000 _
b1 Z
b1010101100 V
b0 T
02
b1011 R
b1010101100 h
b0 f
00
b1011 d
15
#350
05
#355
b111111111101110000000000 _
b10 Z
b10 M
b10 G
15
#360
05
#365
b11 H
b1 G
b11 [
b10110000000000 _
b1 Z
15
#370
05
#375
b100000000000 _
b10 Z
b101 M
b10 G
15
#380
05
#385
b10 H
b10001000 K
b0 M
b1 G
b10 [
b10001000 ]
b1 Z
15
#390
05
#395
b111111111100000000000000 _
b10 Z
b1 M
b10 G
15
#400
05
#405
b1 H
b1 G
b1 [
b1000000000000 _
b1 Z
15
#410
05
#415
b111111111101000000000000 _
b10 Z
b10 M
b10 G
15
#420
05
#425
b0 H
b1 G
b0 [
b10000000000000 _
b1 Z
15
#430
05
#435
b111111111111000000000000 _
b10 Z
b100 M
b10 G
15
#440
05
#445
b11111 H
b11 G
b11111 [
b100000000000000 _
b11 Z
15
#450
05
#455
11
b100 "
b100 ^
b10001000 '
b10001000 \
b0 Z
14
b100 %
b100 L
b10001000 *
b10001000 J
b0 G
15
#460
05
#465
b0 M
b0 K
04
b1011 H
b1010101100 _
b0 ]
01
b1011 [
15
