downsampler_matlab/script/downsampler.vcd
$date
	Mon Feb  7 19:07:28 2022
$end
$version
	Icarus Verilog
$end
$timescale
	10ps
$end
$scope module downsampler_tb $end
$var wire 1 ! ce_out_1 $end
$var wire 1 " ce_out_0 $end
$var wire 12 # Out2 [11:0] $end
$var wire 12 $ Out1 [11:0] $end
$var reg 12 % In1 [11:0] $end
$var reg 1 & clk $end
$var reg 1 ' clk_enable $end
$var reg 1 ( reset $end
$scope module dut $end
$var wire 12 ) Discrete_FIR_Filter3_out1_1 [11:0] $end
$var wire 12 * Downsample4_out1_1 [11:0] $end
$var wire 12 + In1 [11:0] $end
$var wire 12 , Out1 [11:0] $end
$var wire 12 - Out2 [11:0] $end
$var wire 1 " ce_out_0 $end
$var wire 1 ! ce_out_1 $end
$var wire 1 & clk $end
$var wire 1 ' clk_enable $end
$var wire 1 ( reset $end
$var wire 1 . enb_4_9_1 $end
$var wire 1 / enb_4_1_1 $end
$var wire 1 0 enb_1_9_1 $end
$var wire 1 1 enb_1_9_0 $end
$var wire 1 2 enb_1_36_1 $end
$var wire 1 3 enb $end
$var wire 12 4 Downsample5_out1 [11:0] $end
$var wire 12 5 Downsample4_out1 [11:0] $end
$var wire 12 6 Discrete_FIR_Filter4_out1_reg [11:0] $end
$var wire 12 7 Discrete_FIR_Filter3_out1_reg [11:0] $end
$var reg 12 8 Discrete_FIR_Filter3_out1 [11:0] $end
$var reg 12 9 Discrete_FIR_Filter4_out1 [11:0] $end
$var reg 12 : Discrete_FIR_Filter4_out1_1 [11:0] $end
$var reg 12 ; Downsample4_bypass_reg [11:0] $end
$var reg 12 < Downsample5_bypass_reg [11:0] $end
$scope module u_Discrete_FIR_Filter3 $end
$var wire 12 = Discrete_FIR_Filter3_in [11:0] $end
$var wire 12 > Discrete_FIR_Filter3_out [11:0] $end
$var wire 32 ? add_cast [31:0] $end
$var wire 32 @ add_cast_1 [31:0] $end
$var wire 32 A add_cast_10 [31:0] $end
$var wire 32 B add_cast_11 [31:0] $end
$var wire 32 C add_cast_12 [31:0] $end
$var wire 32 D add_cast_13 [31:0] $end
$var wire 32 E add_cast_14 [31:0] $end
$var wire 32 F add_cast_15 [31:0] $end
$var wire 32 G add_cast_16 [31:0] $end
$var wire 32 H add_cast_17 [31:0] $end
$var wire 32 I add_cast_18 [31:0] $end
$var wire 32 J add_cast_19 [31:0] $end
$var wire 32 K add_cast_2 [31:0] $end
$var wire 32 L add_cast_20 [31:0] $end
$var wire 32 M add_cast_21 [31:0] $end
$var wire 32 N add_cast_22 [31:0] $end
$var wire 32 O add_cast_23 [31:0] $end
$var wire 32 P add_cast_24 [31:0] $end
$var wire 32 Q add_cast_25 [31:0] $end
$var wire 32 R add_cast_26 [31:0] $end
$var wire 32 S add_cast_27 [31:0] $end
$var wire 32 T add_cast_28 [31:0] $end
$var wire 32 U add_cast_29 [31:0] $end
$var wire 32 V add_cast_3 [31:0] $end
$var wire 32 W add_cast_30 [31:0] $end
$var wire 32 X add_cast_31 [31:0] $end
$var wire 32 Y add_cast_32 [31:0] $end
$var wire 32 Z add_cast_33 [31:0] $end
$var wire 32 [ add_cast_4 [31:0] $end
$var wire 32 \ add_cast_5 [31:0] $end
$var wire 32 ] add_cast_6 [31:0] $end
$var wire 32 ^ add_cast_7 [31:0] $end
$var wire 32 _ add_cast_8 [31:0] $end
$var wire 32 ` add_cast_9 [31:0] $end
$var wire 1 & clk $end
$var wire 32 a prod_typeconvert_1 [31:0] $end
$var wire 32 b prod_typeconvert_2 [31:0] $end
$var wire 32 c prod_typeconvert_3 [31:0] $end
$var wire 32 d prod_typeconvert_4 [31:0] $end
$var wire 32 e prod_typeconvert_5 [31:0] $end
$var wire 32 f prod_typeconvert_6 [31:0] $end
$var wire 32 g prod_typeconvert_7 [31:0] $end
$var wire 32 h prod_typeconvert_8 [31:0] $end
$var wire 32 i prod_typeconvert_9 [31:0] $end
$var wire 1 ( reset $end
$var wire 32 j sum8 [31:0] $end
$var wire 32 k sum7 [31:0] $end
$var wire 32 l sum6 [31:0] $end
$var wire 32 m sum5 [31:0] $end
$var wire 32 n sum4 [31:0] $end
$var wire 32 o sum3 [31:0] $end
$var wire 32 p sum2 [31:0] $end
$var wire 32 q sum1 [31:0] $end
$var wire 16 r product_9_mux [15:0] $end
$var wire 32 s product_9 [31:0] $end
$var wire 16 t product_8_mux [15:0] $end
$var wire 32 u product_8 [31:0] $end
$var wire 16 v product_7_mux [15:0] $end
$var wire 32 w product_7 [31:0] $end
$var wire 16 x product_6_mux [15:0] $end
$var wire 32 y product_6 [31:0] $end
$var wire 16 z product_5_mux [15:0] $end
$var wire 32 { product_5 [31:0] $end
$var wire 16 | product_4_mux [15:0] $end
$var wire 32 } product_4 [31:0] $end
$var wire 16 ~ product_3_mux [15:0] $end
$var wire 32 !" product_3 [31:0] $end
$var wire 16 "" product_2_mux [15:0] $end
$var wire 32 #" product_2 [31:0] $end
$var wire 16 $" product_1_mux [15:0] $end
$var wire 32 %" product_1 [31:0] $end
$var wire 1 &" phase_0 $end
$var wire 12 '" output_typeconvert [11:0] $end
$var wire 28 (" mul_temp_8 [27:0] $end
$var wire 28 )" mul_temp_7 [27:0] $end
$var wire 28 *" mul_temp_6 [27:0] $end
$var wire 28 +" mul_temp_5 [27:0] $end
$var wire 28 ," mul_temp_4 [27:0] $end
$var wire 28 -" mul_temp_3 [27:0] $end
$var wire 28 ." mul_temp_2 [27:0] $end
$var wire 28 /" mul_temp_1 [27:0] $end
$var wire 28 0" mul_temp [27:0] $end
$var wire 12 1" inputmux_9 [11:0] $end
$var wire 12 2" inputmux_8 [11:0] $end
$var wire 12 3" inputmux_7 [11:0] $end
$var wire 12 4" inputmux_6 [11:0] $end
$var wire 12 5" inputmux_5 [11:0] $end
$var wire 12 6" inputmux_4 [11:0] $end
$var wire 12 7" inputmux_3 [11:0] $end
$var wire 12 8" inputmux_2 [11:0] $end
$var wire 12 9" inputmux_1 [11:0] $end
$var wire 1 / enb_4_1_1 $end
$var wire 33 :" add_temp_9 [32:0] $end
$var wire 33 ;" add_temp_8 [32:0] $end
$var wire 33 <" add_temp_7 [32:0] $end
$var wire 33 =" add_temp_6 [32:0] $end
$var wire 33 >" add_temp_5 [32:0] $end
$var wire 33 ?" add_temp_4 [32:0] $end
$var wire 33 @" add_temp_3 [32:0] $end
$var wire 33 A" add_temp_2 [32:0] $end
$var wire 33 B" add_temp_16 [32:0] $end
$var wire 33 C" add_temp_15 [32:0] $end
$var wire 33 D" add_temp_14 [32:0] $end
$var wire 33 E" add_temp_13 [32:0] $end
$var wire 33 F" add_temp_12 [32:0] $end
$var wire 33 G" add_temp_11 [32:0] $end
$var wire 33 H" add_temp_10 [32:0] $end
$var wire 33 I" add_temp_1 [32:0] $end
$var wire 33 J" add_temp [32:0] $end
$var wire 32 K" acc_sum_9 [31:0] $end
$var wire 32 L" acc_sum_8 [31:0] $end
$var wire 32 M" acc_sum_7 [31:0] $end
$var wire 32 N" acc_sum_6 [31:0] $end
$var wire 32 O" acc_sum_5 [31:0] $end
$var wire 32 P" acc_sum_4 [31:0] $end
$var wire 32 Q" acc_sum_3 [31:0] $end
$var wire 32 R" acc_sum_2 [31:0] $end
$var wire 32 S" acc_sum_1 [31:0] $end
$var wire 32 T" acc_in_9 [31:0] $end
$var wire 32 U" acc_in_8 [31:0] $end
$var wire 32 V" acc_in_7 [31:0] $end
$var wire 32 W" acc_in_6 [31:0] $end
$var wire 32 X" acc_in_5 [31:0] $end
$var wire 32 Y" acc_in_4 [31:0] $end
$var wire 32 Z" acc_in_3 [31:0] $end
$var wire 32 [" acc_in_2 [31:0] $end
$var wire 32 \" acc_in_1 [31:0] $end
$var reg 32 ]" acc_final [31:0] $end
$var reg 32 ^" acc_out_1 [31:0] $end
$var reg 32 _" acc_out_2 [31:0] $end
$var reg 32 `" acc_out_3 [31:0] $end
$var reg 32 a" acc_out_4 [31:0] $end
$var reg 32 b" acc_out_5 [31:0] $end
$var reg 32 c" acc_out_6 [31:0] $end
$var reg 32 d" acc_out_7 [31:0] $end
$var reg 32 e" acc_out_8 [31:0] $end
$var reg 32 f" acc_out_9 [31:0] $end
$var reg 2 g" cur_count [1:0] $end
$upscope $end
$scope module u_Discrete_FIR_Filter4 $end
$var wire 12 h" Discrete_FIR_Filter4_in [11:0] $end
$var wire 12 i" Discrete_FIR_Filter4_out [11:0] $end
$var wire 32 j" add_cast [31:0] $end
$var wire 32 k" add_cast_1 [31:0] $end
$var wire 32 l" add_cast_10 [31:0] $end
$var wire 32 m" add_cast_11 [31:0] $end
$var wire 32 n" add_cast_12 [31:0] $end
$var wire 32 o" add_cast_13 [31:0] $end
$var wire 32 p" add_cast_14 [31:0] $end
$var wire 32 q" add_cast_15 [31:0] $end
$var wire 32 r" add_cast_16 [31:0] $end
$var wire 32 s" add_cast_17 [31:0] $end
$var wire 32 t" add_cast_18 [31:0] $end
$var wire 32 u" add_cast_19 [31:0] $end
$var wire 32 v" add_cast_2 [31:0] $end
$var wire 32 w" add_cast_20 [31:0] $end
$var wire 32 x" add_cast_21 [31:0] $end
$var wire 32 y" add_cast_3 [31:0] $end
$var wire 32 z" add_cast_4 [31:0] $end
$var wire 32 {" add_cast_5 [31:0] $end
$var wire 32 |" add_cast_6 [31:0] $end
$var wire 32 }" add_cast_7 [31:0] $end
$var wire 32 ~" add_cast_8 [31:0] $end
$var wire 32 !# add_cast_9 [31:0] $end
$var wire 1 & clk $end
$var wire 32 "# prod_typeconvert_1 [31:0] $end
$var wire 32 ## prod_typeconvert_2 [31:0] $end
$var wire 32 $# prod_typeconvert_3 [31:0] $end
$var wire 32 %# prod_typeconvert_4 [31:0] $end
$var wire 32 &# prod_typeconvert_5 [31:0] $end
$var wire 32 '# prod_typeconvert_6 [31:0] $end
$var wire 1 ( reset $end
$var wire 32 (# sum5 [31:0] $end
$var wire 32 )# sum4 [31:0] $end
$var wire 32 *# sum3 [31:0] $end
$var wire 32 +# sum2 [31:0] $end
$var wire 32 ,# sum1 [31:0] $end
$var wire 16 -# product_6_mux [15:0] $end
$var wire 32 .# product_6 [31:0] $end
$var wire 16 /# product_5_mux [15:0] $end
$var wire 32 0# product_5 [31:0] $end
$var wire 16 1# product_4_mux [15:0] $end
$var wire 32 2# product_4 [31:0] $end
$var wire 16 3# product_3_mux [15:0] $end
$var wire 32 4# product_3 [31:0] $end
$var wire 16 5# product_2_mux [15:0] $end
$var wire 32 6# product_2 [31:0] $end
$var wire 16 7# product_1_mux [15:0] $end
$var wire 32 8# product_1 [31:0] $end
$var wire 1 9# phase_1 $end
$var wire 1 :# phase_0 $end
$var wire 12 ;# output_typeconvert [11:0] $end
$var wire 28 <# mul_temp_5 [27:0] $end
$var wire 28 =# mul_temp_4 [27:0] $end
$var wire 28 ># mul_temp_3 [27:0] $end
$var wire 28 ?# mul_temp_2 [27:0] $end
$var wire 28 @# mul_temp_1 [27:0] $end
$var wire 28 A# mul_temp [27:0] $end
$var wire 12 B# inputmux_6 [11:0] $end
$var wire 12 C# inputmux_5 [11:0] $end
$var wire 12 D# inputmux_4 [11:0] $end
$var wire 12 E# inputmux_3 [11:0] $end
$var wire 12 F# inputmux_2 [11:0] $end
$var wire 12 G# inputmux_1 [11:0] $end
$var wire 1 . enb_4_9_1 $end
$var wire 33 H# add_temp_9 [32:0] $end
$var wire 33 I# add_temp_8 [32:0] $end
$var wire 33 J# add_temp_7 [32:0] $end
$var wire 33 K# add_temp_6 [32:0] $end
$var wire 33 L# add_temp_5 [32:0] $end
$var wire 33 M# add_temp_4 [32:0] $end
$var wire 33 N# add_temp_3 [32:0] $end
$var wire 33 O# add_temp_2 [32:0] $end
$var wire 33 P# add_temp_10 [32:0] $end
$var wire 33 Q# add_temp_1 [32:0] $end
$var wire 33 R# add_temp [32:0] $end
$var wire 32 S# acc_sum_6 [31:0] $end
$var wire 32 T# acc_sum_5 [31:0] $end
$var wire 32 U# acc_sum_4 [31:0] $end
$var wire 32 V# acc_sum_3 [31:0] $end
$var wire 32 W# acc_sum_2 [31:0] $end
$var wire 32 X# acc_sum_1 [31:0] $end
$var wire 32 Y# acc_in_6 [31:0] $end
$var wire 32 Z# acc_in_5 [31:0] $end
$var wire 32 [# acc_in_4 [31:0] $end
$var wire 32 \# acc_in_3 [31:0] $end
$var wire 32 ]# acc_in_2 [31:0] $end
$var wire 32 ^# acc_in_1 [31:0] $end
$var reg 32 _# acc_final [31:0] $end
$var reg 32 `# acc_out_1 [31:0] $end
$var reg 32 a# acc_out_2 [31:0] $end
$var reg 32 b# acc_out_3 [31:0] $end
$var reg 32 c# acc_out_4 [31:0] $end
$var reg 32 d# acc_out_5 [31:0] $end
$var reg 32 e# acc_out_6 [31:0] $end
$var reg 2 f# cur_count [1:0] $end
$upscope $end
$scope module u_two_stage_downsampler_tc $end
$var wire 1 & clk $end
$var wire 1 ' clk_enable $end
$var wire 1 3 enb $end
$var wire 1 2 enb_1_36_1 $end
$var wire 1 1 enb_1_9_0 $end
$var wire 1 0 enb_1_9_1 $end
$var wire 1 / enb_4_1_1 $end
$var wire 1 . enb_4_9_1 $end
$var wire 1 ( reset $end
$var wire 1 g# phase_all $end
$var wire 1 h# phase_1_tmp_2 $end
$var wire 1 i# phase_1_tmp_1 $end
$var wire 1 j# phase_1_tmp $end
$var wire 1 k# phase_0_tmp_1 $end
$var wire 1 l# phase_0_tmp $end
$var reg 8 m# count144 [7:0] $end
$var reg 6 n# count36 [5:0] $end
$var reg 2 o# count4 [1:0] $end
$var reg 4 p# count9 [3:0] $end
$var reg 1 q# phase_0 $end
$var reg 1 r# phase_0_1 $end
$var reg 1 s# phase_1 $end
$var reg 1 t# phase_1_1 $end
$var reg 1 u# phase_1_2 $end
$upscope $end
$scope begin Discrete_FIR_Filter3_reg_process $end
$upscope $end
$scope begin Discrete_FIR_Filter4_reg_process $end
$upscope $end
$scope begin Downsample4_bypass_process $end
$upscope $end
$scope begin Downsample5_bypass_process $end
$upscope $end
$scope begin delayMatch1_process $end
$upscope $end
$scope begin delayMatch2_process $end
$upscope $end
$scope begin delayMatch_process $end
$upscope $end
$upscope $end
$upscope $end
$enddefinitions $end
#0
$dumpvars
1u#
1t#
1s#
0r#
0q#
b1 p#
b1 o#
b1 n#
b1 m#
0l#
0k#
0j#
0i#
0h#
1g#
b0 f#
b0 e#
b0 d#
b0 c#
b0 b#
b0 a#
b0 `#
b0 _#
b0 ^#
b0 ]#
b0 \#
b0 [#
b0 Z#
b0 Y#
b0 X#
b0 W#
b0 V#
b0 U#
b0 T#
b0 S#
b0 R#
b0 Q#
b0 P#
b0 O#
b0 N#
b0 M#
b0 L#
b0 K#
b0 J#
b0 I#
b0 H#
b0 G#
b0 F#
b0 E#
b0 D#
b0 C#
b0 B#
b0 A#
b0 @#
b0 ?#
b0 >#
b0 =#
b0 <#
b0 ;#
1:#
19#
b0 8#
b10010111 7#
b0 6#
b1101011110 5#
b0 4#
b100101010101 3#
b0 2#
b101100101110 1#
b0 0#
b11001011100 /#
b0 .#
b101010000 -#
b0 ,#
b0 +#
b0 *#
b0 )#
b0 (#
b0 '#
b0 &#
b0 %#
b0 $#
b0 ##
b0 "#
b0 !#
b0 ~"
b0 }"
b0 |"
b0 {"
b0 z"
b0 y"
b0 x"
b0 w"
b0 v"
b0 u"
b0 t"
b0 s"
b0 r"
b0 q"
b0 p"
b0 o"
b0 n"
b0 m"
b0 l"
b0 k"
b0 j"
b0 i"
b0 h"
b0 g"
b0 f"
b0 e"
b0 d"
b0 c"
b0 b"
b0 a"
b0 `"
b0 _"
b0 ^"
b0 ]"
bx \"
b0 ["
b0 Z"
b0 Y"
b0 X"
b0 W"
b0 V"
b0 U"
b0 T"
bx S"
b0 R"
b0 Q"
b0 P"
b0 O"
b0 N"
b0 M"
b0 L"
b0 K"
bx J"
b0 I"
b0 H"
b0 G"
b0 F"
b0 E"
b0 D"
b0 C"
b0 B"
b0 A"
b0 @"
b0 ?"
b0 >"
b0 ="
b0 <"
b0 ;"
b0 :"
bx 9"
b0 8"
b0 7"
b0 6"
b0 5"
b0 4"
b0 3"
b0 2"
b0 1"
bx 0"
b0 /"
b0 ."
b0 -"
b0 ,"
b0 +"
b0 *"
b0 )"
b0 ("
b0 '"
1&"
bx %"
b10001001 $"
b0 #"
b101001100 ""
b0 !"
b1100111000 ~
b0 }
b10101011011 |
b0 {
b11010100101 z
b0 y
b11001110011 x
b0 w
b10011011101 v
b0 u
b1010101101 t
b0 s
b11111001 r
b0 q
b0 p
b0 o
b0 n
b0 m
b0 l
b0 k
b0 j
b0 i
b0 h
b0 g
b0 f
b0 e
b0 d
b0 c
b0 b
bx a
b0 `
b0 _
b0 ^
b0 ]
b0 \
b0 [
b0 Z
b0 Y
b0 X
b0 W
b0 V
b0 U
b0 T
b0 S
b0 R
b0 Q
b0 P
b0 O
b0 N
b0 M
b0 L
b0 K
b0 J
b0 I
b0 H
b0 G
b0 F
b0 E
b0 D
b0 C
b0 B
b0 A
b0 @
bx ?
b0 >
bx =
b0 <
b0 ;
b0 :
b0 9
b0 8
b0 7
b0 6
b0 5
b0 4
03
12
01
10
1/
1.
b0 -
b0 ,
bx +
b0 *
b0 )
1(
1'
0&
bx %
b0 $
b0 #
1"
1!
$end
#1000
1&
#2000
0&
#3000
0&"
09#
0:#
0/
0.
0!
00
0"
02
0g#
1&
0'
#4000
0&
#5000
1&
#6000
0&
#7000
1&
#8000
0&
#9000
1&
#10000
0&
0(
#11000
1&
#12000
0&
#13000
1&
#14000
0&
#15000
1&
#16000
0&
#17000
1&
#18000
0&
#19000
1&
#20000
0&
#21000
1&
#22000
0&
#23000
bx \"
b11001010 7#
b10011001100 5#
b101001110101 3#
b101001110101 1#
b10011001100 /#
b11001010 -#
bx j
b0 ?
b0 a
b0 %"
b0 0"
b0 9"
b10010110 $"
b110110011 ""
b1111000111 ~
b10111001011 |
b11010111111 z
b11000101001 x
b10001010101 v
b1000101010 t
b10111011 r
b1 f#
bx B"
bx Z
bx @
bx ^"
b1 g"
0u#
b10 m#
0t#
b10 n#
0s#
b10 p#
b10 o#
0&"
09#
0:#
1/
0.
0!
00
0"
02
1g#
1&
1'
#24000
0&
#25000
0/
0g#
1&
0'
#26000
0&
#27000
1&
#28000
0&
#29000
1&
#30000
0&
#31000
1&
#32000
0&
#33000
1&
#34000
0&
#35000
1&
#36000
0&
#37000
1&
#38000
0&
#39000
1&
#40000
0&
#41000
1&
#42000
0&
#43000
1&
#44000
0&
#45000
b10111011 $"
b1000101010 ""
b10001010101 ~
b11000101001 |
b10111001011 x
b1111000111 v
b110110011 t
b10010110 r
1l#
b10 g"
b11 m#
b11 n#
b11 p#
b11 o#
1/
1g#
1&
1'
#46000
0&
#47000
0l#
0/
0g#
1&
0'
#48000
0&
#49000
1&
#50000
0&
#51000
1&
#52000
0&
#53000
1&
#54000
0&
#55000
1&
#56000
0&
#57000
1&
#58000
0&
#59000
1&
#60000
0&
#61000
1&
#62000
0&
#63000
1&
#64000
0&
#65000
1&
#66000
0&
#67000
b11111001 $"
b1010101101 ""
b10011011101 ~
b11001110011 |
b11010100101 z
b10101011011 x
b1100111000 v
b101001100 t
b10001001 r
b11 g"
b100 m#
b100 n#
b100 p#
b0 o#
0l#
1/
1g#
1&
1'
#68000
0&
#69000
0/
0g#
1&
0'
#70000
0&
#71000
1&
#72000
0&
#73000
1&
#74000
0&
#75000
1&
#76000
0&
#77000
1&
#78000
0&
#79000
1&
#80000
0&
#81000
1&
#82000
0&
#83000
1&
#84000
0&
#85000
1&
#86000
0&
#87000
1&
#88000
0&
#89000
1&"
bx ?
bx a
bx %"
bx 0"
bx 9"
b10001001 $"
b101001100 ""
b1100111000 ~
b10101011011 |
b11001110011 x
b10011011101 v
b1010101101 t
b11111001 r
b0 g"
b101 m#
b101 n#
b101 p#
b1 o#
1/
1g#
1&
1'
#90000
0&
#91000
bx 7
bx >
bx '"
bx ]"
0&"
0/
0g#
1&
0'
#92000
0&
#93000
1&
#94000
0&
#95000
1&
#96000
0&
#97000
1&
#98000
0&
#99000
1&
#100000
0&
#101000
1&
#102000
0&
#103000
1&
#104000
0&
#105000
1&
#106000
0&
#107000
1&
#108000
0&
#109000
1&
#110000
0&
#111000
bx \"
b0 ?
b0 a
b0 %"
b0 0"
b0 9"
b10010110 $"
b110110011 ""
b1111000111 ~
b10111001011 |
b11010111111 z
b11000101001 x
b10001010101 v
b1000101010 t
b10111011 r
b1 g"
b110 m#
b110 n#
b110 p#
b10 o#
0&"
1/
1g#
1&
1'
#112000
0&
#113000
0/
0g#
1&
0'
#114000
0&
#115000
1&
#116000
0&
#117000
1&
#118000
0&
#119000
1&
#120000
0&
#121000
1&
#122000
0&
#123000
1&
#124000
0&
#125000
1&
#126000
0&
#127000
1&
#128000
0&
#129000
1&
#130000
0&
#131000
1&
#132000
0&
#133000
b10111011 $"
b1000101010 ""
b10001010101 ~
b11000101001 |
b10111001011 x
b1111000111 v
b110110011 t
b10010110 r
1l#
b10 g"
b111 m#
b111 n#
b111 p#
b11 o#
1/
1g#
1&
1'
#134000
0&
#135000
0l#
0/
0g#
1&
0'
#136000
0&
#137000
1&
#138000
0&
#139000
1&
#140000
0&
#141000
1&
#142000
0&
#143000
1&
#144000
0&
#145000
1&
#146000
0&
#147000
1&
#148000
0&
#149000
1&
#150000
0&
#151000
1&
#152000
0&
#153000
1&
#154000
0&
#155000
b11111001 $"
b1010101101 ""
b10011011101 ~
b11001110011 |
b11010100101 z
b10101011011 x
b1100111000 v
b101001100 t
b10001001 r
b11 g"
b1000 m#
b1000 n#
b1000 p#
b0 o#
0l#
1/
1g#
1&
1'
#156000
0&
#157000
0/
0g#
1&
0'
#158000
0&
#159000
1&
#160000
0&
#161000
1&
#162000
0&
#163000
1&
#164000
0&
#165000
1&
#166000
0&
#167000
1&
#168000
0&
#169000
1&
#170000
0&
#171000
1&
#172000
0&
#173000
1&
#174000
0&
#175000
1&
#176000
0&
#177000
1&"
1j#
bx ?
bx a
bx %"
bx 0"
bx 9"
b10001001 $"
b101001100 ""
b1100111000 ~
b10101011011 |
b11001110011 x
b10011011101 v
b1010101101 t
b11111001 r
b0 g"
b1001 m#
b1001 n#
b0 p#
b1 o#
1/
1g#
1&
1'
#178000
0&
#179000
0&"
0j#
0/
0g#
1&
0'
#180000
0&
#181000
1&
#182000
0&
#183000
1&
#184000
0&
#185000
1&
#186000
0&
#187000
1&
#188000
0&
#189000
1&
#190000
0&
#191000
1&
#192000
0&
#193000
1&
#194000
0&
#195000
1&
#196000
0&
#197000
1&
#198000
0&
#199000
b10010110 $"
b110110011 ""
b1111000111 ~
b10111001011 |
b11010111111 z
b11000101001 x
b10001010101 v
b1000101010 t
b10111011 r
b1 g"
b1010 m#
b1010 n#
b1 p#
b10 o#
0&"
0j#
1/
1g#
1&
1'
#200000
0&
#201000
0/
0g#
1&
0'
#202000
0&
#203000
1&
#204000
0&
#205000
1&
#206000
0&
#207000
1&
#208000
0&
#209000
1&
#210000
0&
#211000
1&
#212000
0&
#213000
1&
#214000
0&
#215000
1&
#216000
0&
#217000
1&
#218000
0&
#219000
1&
#220000
0&
#221000
b0 ?
b0 a
b0 %"
b0 0"
b0 9"
b10111011 $"
b1000101010 ""
b10001010101 ~
b11000101001 |
b10111001011 x
b1111000111 v
b110110011 t
b10010110 r
1l#
b10 g"
b1011 m#
b1011 n#
b10 p#
b11 o#
1/
1g#
1&
1'
#222000
0&
#223000
0l#
0/
0g#
1&
0'
#224000
0&
#225000
1&
#226000
0&
#227000
1&
#228000
0&
#229000
1&
#230000
0&
#231000
1&
#232000
0&
#233000
1&
#234000
0&
#235000
1&
#236000
0&
#237000
1&
#238000
0&
#239000
1&
#240000
0&
#241000
1&
#242000
0&
#243000
b11111001 $"
b1010101101 ""
b10011011101 ~
b11001110011 |
b11010100101 z
b10101011011 x
b1100111000 v
b101001100 t
b10001001 r
b11 g"
b1100 m#
b1100 n#
b11 p#
b0 o#
0l#
1/
1g#
1&
1'
#244000
0&
#245000
0/
0g#
1&
0'
#246000
0&
#247000
1&
#248000
0&
#249000
1&
#250000
0&
#251000
1&
#252000
0&
#253000
1&
#254000
0&
#255000
1&
#256000
0&
#257000
1&
#258000
0&
#259000
1&
#260000
0&
#261000
1&
#262000
0&
#263000
1&
#264000
0&
#265000
1&"
bx ?
bx a
bx %"
bx 0"
bx 9"
b10001001 $"
b101001100 ""
b1100111000 ~
b10101011011 |
b11001110011 x
b10011011101 v
b1010101101 t
b11111001 r
b0 g"
b1101 m#
b1101 n#
b100 p#
b1 o#
1/
1g#
1&
1'
#266000
0&
#267000
0&"
0/
0g#
1&
0'
#268000
0&
#269000
1&
#270000
0&
#271000
1&
#272000
0&
#273000
1&
#274000
0&
#275000
1&
#276000
0&
#277000
1&
#278000
0&
#279000
1&
#280000
0&
#281000
1&
#282000
0&
#283000
1&
#284000
0&
#285000
1&
#286000
0&
#287000
b10010110 $"
b110110011 ""
b1111000111 ~
b10111001011 |
b11010111111 z
b11000101001 x
b10001010101 v
b1000101010 t
b10111011 r
b1 g"
b1110 m#
b1110 n#
b101 p#
b10 o#
0&"
1/
1g#
1&
1'
#288000
0&
#289000
0/
0g#
1&
0'
#290000
0&
#291000
1&
#292000
0&
#293000
1&
#294000
0&
#295000
1&
#296000
0&
#297000
1&
#298000
0&
#299000
1&
#300000
0&
#301000
1&
#302000
0&
#303000
1&
#304000
0&
#305000
1&
#306000
0&
#307000
1&
#308000
0&
#309000
b10111011 $"
b1000101010 ""
b10001010101 ~
b11000101001 |
b10111001011 x
b1111000111 v
b110110011 t
b10010110 r
1l#
b10 g"
b1111 m#
b1111 n#
b110 p#
b11 o#
1/
1g#
1&
1'
#310000
0&
#311000
0l#
0/
0g#
1&
0'
#312000
0&
#313000
1&
#314000
0&
#315000
1&
#316000
0&
#317000
1&
#318000
0&
#319000
1&
#320000
0&
#321000
1&
#322000
0&
#323000
1&
#324000
0&
#325000
1&
#326000
0&
#327000
1&
#328000
0&
#329000
1&
#330000
0&
#331000
b0 ?
b0 a
b0 %"
b0 0"
b0 9"
b11111001 $"
b1010101101 ""
b10011011101 ~
b11001110011 |
b11010100101 z
b10101011011 x
b1100111000 v
b101001100 t
b10001001 r
b11 g"
b10000 m#
b10000 n#
b111 p#
b0 o#
0l#
1/
1g#
1&
1'
#332000
0&
#333000
0/
0g#
1&
0'
#334000
0&
#335000
1&
#336000
0&
#337000
1&
#338000
0&
#339000
1&
#340000
0&
#341000
1&
#342000
0&
#343000
1&
#344000
0&
#345000
1&
#346000
0&
#347000
1&
#348000
0&
#349000
1&
#350000
0&
#351000
1&
#352000
0&
#353000
1&"
bx ?
bx a
bx %"
bx 0"
bx 9"
b10001001 $"
b101001100 ""
b1100111000 ~
b10101011011 |
b11001110011 x
b10011011101 v
b1010101101 t
b11111001 r
b0 g"
b10001 m#
b10001 n#
b1000 p#
b1 o#
1/
1g#
1&
1'
#354000
0&
#355000
bx ["
bx R"
bx I"
bx K
bx b
bx #"
bx /"
bx 8"
0&"
0/
0g#
1&
0'
#356000
0&
#357000
1&
#358000
0&
#359000
1&
#360000
0&
#361000
1&
#362000
0&
#363000
1&
#364000
0&
#365000
1&
#366000
0&
#367000
1&
#368000
0&
#369000
1&
#370000
0&
#371000
1&
#372000
0&
#373000
1&
#374000
0&
#375000
bx ["
1j#
bx Y
bx k
b0 K
b0 b
b0 #"
b0 /"
b0 8"
b10010110 $"
b110110011 ""
b1111000111 ~
b10111001011 |
b11010111111 z
b11000101001 x
b10001010101 v
b1000101010 t
b10111011 r
bx C"
bx X
bx V
bx _"
b1 g"
b10010 m#
b10010 n#
b0 p#
b10 o#
0&"
1/
1g#
1&
1'
#376000
0&
#377000
0j#
0/
0g#
1&
0'
#378000
0&
#379000
1&
#380000
0&
#381000
1&
#382000
0&
#383000
1&
#384000
0&
#385000
1&
#386000
0&
#387000
1&
#388000
0&
#389000
1&
#390000
0&
#391000
1&
#392000
0&
#393000
1&
#394000
0&
#395000
1&
#396000
0&
#397000
b10111011 $"
b1000101010 ""
b10001010101 ~
b11000101001 |
b10111001011 x
b1111000111 v
b110110011 t
b10010110 r
1l#
b10 g"
b10011 m#
b10011 n#
b1 p#
b11 o#
0j#
1/
1g#
1&
1'
#398000
0&
#399000
0l#
0/
0g#
1&
0'
#400000
0&
#401000
1&
#402000
0&
#403000
1&
#404000
0&
#405000
1&
#406000
0&
#407000
1&
#408000
0&
#409000
1&
#410000
0&
#411000
1&
#412000
0&
#413000
1&
#414000
0&
#415000
1&
#416000
0&
#417000
1&
#418000
0&
#419000
b11111001 $"
b1010101101 ""
b10011011101 ~
b11001110011 |
b11010100101 z
b10101011011 x
b1100111000 v
b101001100 t
b10001001 r
b11 g"
b10100 m#
b10100 n#
b10 p#
b0 o#
0l#
1/
1g#
1&
1'
#420000
0&
#421000
0/
0g#
1&
0'
#422000
0&
#423000
1&
#424000
0&
#425000
1&
#426000
0&
#427000
1&
#428000
0&
#429000
1&
#430000
0&
#431000
1&
#432000
0&
#433000
1&
#434000
0&
#435000
1&
#436000
0&
#437000
1&
#438000
0&
#439000
1&
#440000
0&
#441000
1&"
bx K
bx b
bx #"
bx /"
bx 8"
b10001001 $"
b101001100 ""
b1100111000 ~
b10101011011 |
b11001110011 x
b10011011101 v
b1010101101 t
b11111001 r
b0 g"
b10101 m#
b10101 n#
b11 p#
b1 o#
1/
1g#
1&
1'
#442000
0&
#443000
0&"
0/
0g#
1&
0'
#444000
0&
#445000
1&
#446000
0&
#447000
1&
#448000
0&
#449000
1&
#450000
0&
#451000
1&
#452000
0&
#453000
1&
#454000
0&
#455000
1&
#456000
0&
#457000
1&
#458000
0&
#459000
1&
#460000
0&
#461000
1&
#462000
0&
