pi/test/sim_data.vcd
$date
	Sat Mar 12 19:16:05 2022
$end
$version
	Icarus Verilog
$end
$timescale
	1ns
$end
$scope module axis_pi_tb $end
$var wire 1 ! s_axis_input_tready $end
$var wire 1 " s_axis_reference_tready $end
$var wire 1 # m_axis_output_tvalid $end
$var wire 16 $ m_axis_output_tdata [15:0] $end
$var reg 1 % _s0 $end
$var reg 1 & _s1 $end
$var reg 1 ' _s10 $end
$var reg 1 ( _s11 $end
$var reg 1 ) _s12 $end
$var reg 1 * _s13 $end
$var reg 1 + _s14 $end
$var reg 1 , _s15 $end
$var reg 1 - _s16 $end
$var reg 1 . _s17 $end
$var reg 1 / _s18 $end
$var reg 1 0 _s19 $end
$var reg 1 1 _s2 $end
$var reg 1 2 _s20 $end
$var reg 1 3 _s21 $end
$var reg 1 4 _s22 $end
$var reg 1 5 _s23 $end
$var reg 1 6 _s24 $end
$var reg 1 7 _s25 $end
$var reg 1 8 _s26 $end
$var reg 1 9 _s27 $end
$var reg 1 : _s28 $end
$var reg 1 ; _s29 $end
$var reg 1 < _s3 $end
$var reg 1 = _s30 $end
$var reg 1 > _s31 $end
$var reg 1 ? _s32 $end
$var reg 1 @ _s33 $end
$var reg 1 A _s34 $end
$var reg 1 B _s35 $end
$var reg 1 C _s36 $end
$var reg 1 D _s4 $end
$var reg 1 E _s5 $end
$var reg 1 F _s6 $end
$var reg 1 G _s7 $end
$var reg 1 H _s8 $end
$var reg 1 I _s9 $end
$var reg 1 J aclk $end
$var reg 16 K ki [15:0] $end
$var reg 16 L kp [15:0] $end
$var reg 1 M m_axis_output_tready $end
$var reg 16 N output_max [15:0] $end
$var reg 16 O output_min [15:0] $end
$var reg 1 P resetn $end
$var reg 16 Q s_axis_input_tdata [15:0] $end
$var reg 1 R s_axis_input_tlast $end
$var reg 1 S s_axis_input_tvalid $end
$var reg 16 T s_axis_reference_tdata [15:0] $end
$var reg 1 U s_axis_reference_tlast $end
$var reg 1 V s_axis_reference_tvalid $end
$var real 1 W error_model_module $end
$var real 1 X input_real $end
$var real 1 Y ki_gain $end
$var real 1 Z ki_real $end
$var real 1 [ kp_real $end
$var real 1 \ model_error $end
$var real 1 ] model_input_real $end
$var real 1 ^ model_integral $end
$var integer 32 _ model_output [31:0] $end
$var real 1 ` model_output_nsat $end
$var real 1 a model_output_real $end
$var real 1 b model_proportional $end
$var real 1 c model_reference_real $end
$var real 1 d output_max_real $end
$var real 1 e output_min_real $end
$var real 1 f reference_real $end
$scope function check_error $end
$var reg 1 g check_error $end
$upscope $end
$scope function check_model $end
$var reg 1 h check_model $end
$upscope $end
$scope function compute_model $end
$var reg 1 i compute_model $end
$upscope $end
$scope function compute_model_loopback $end
$var reg 1 j compute_model_loopback $end
$upscope $end
$scope function compute_model_sat $end
$var reg 1 k compute_model_sat $end
$upscope $end
$scope function loopback $end
$var reg 1 l loopback $end
$upscope $end
$scope function real2fp $end
$var reg 1 m real2fp $end
$upscope $end
$scope function reset_model $end
$var reg 1 n reset_model $end
$upscope $end
$scope module uut $end
$var wire 1 J aclk $end
$var wire 16 o ki [15:0] $end
$var wire 16 p kp [15:0] $end
$var wire 1 M m_axis_output_tready $end
$var wire 16 q output_max [15:0] $end
$var wire 16 r output_min [15:0] $end
$var wire 1 P resetn $end
$var wire 16 s s_axis_input_tdata [15:0] $end
$var wire 1 ! s_axis_input_tready $end
$var wire 1 S s_axis_input_tvalid $end
$var wire 16 t s_axis_reference_tdata [15:0] $end
$var wire 1 " s_axis_reference_tready $end
$var wire 1 V s_axis_reference_tvalid $end
$var wire 16 u reference_internal [15:0] $end
$var wire 16 v m_axis_output_tdata [15:0] $end
$var wire 16 w kp_internal [15:0] $end
$var wire 33 x kp_error [32:0] $end
$var wire 16 y ki_internal [15:0] $end
$var wire 33 z ki_error [32:0] $end
$var wire 16 { input_internal [15:0] $end
$var wire 17 | error [16:0] $end
$var wire 33 } control_action_sum [32:0] $end
$var reg 33 ~ integral_register [32:0] $end
$var reg 1 # m_axis_output_tvalid $end
$var reg 16 !" output_nsat [15:0] $end
$upscope $end
$upscope $end
$enddefinitions $end
#0
$dumpvars
bx !"
bx ~
bx }
b0 |
b0 {
b0 z
b10000 y
b0 x
b10100100 w
bx v
b0 u
b0 t
b0 s
b1000011001100110 r
b111100110011010 q
b10100100 p
b10000 o
xn
xm
xl
xk
xj
xi
xh
xg
r0 f
r-1.9 e
r1.9 d
r0 c
r0 b
r0 a
r0 `
b0 _
r0 ^
r0 ]
r0 \
r0.01 [
r0.001 Z
r0 Y
r0 X
r0 W
0V
0U
b0 T
0S
0R
b0 Q
0P
b1000011001100110 O
b111100110011010 N
1M
b10100100 L
b10000 K
0J
xI
xH
xG
xF
xE
xD
xC
xB
xA
x@
x?
x>
x=
x<
x;
x:
x9
x8
x7
x6
x5
x4
x3
x2
x1
x0
x/
x.
x-
x,
x+
x*
x)
x(
x'
x&
x%
bx $
x#
z"
z!
$end
#5
b0 }
b0 $
b0 v
b0 ~
b0 !"
1J
#10
0J
#15
1J
#20
0J
#25
1J
#30
0J
#35
1J
#40
0J
#45
1J
#50
0J
#55
1J
#60
0J
#65
1J
#70
0J
#75
1J
#80
0J
#85
1J
#90
0J
#95
1J
#100
0J
#105
1J
#110
0J
#115
1J
#120
0J
#125
1J
#130
0J
#135
1J
#140
0J
#145
1J
#150
0J
#155
1J
#160
0J
#165
1J
#170
0J
#175
1J
#180
0J
#185
1J
#190
0J
#195
1J
#200
0J
#205
1J
#210
0J
#215
1J
#220
0J
#225
1J
#230
0J
#235
1J
#240
0J
#245
1J
#250
0J
#255
1J
#260
0J
#265
1J
#270
0J
#275
1J
#280
0J
#285
1J
#290
0J
#295
1J
#300
0J
#305
1J
#310
0J
#315
1J
#320
0J
#325
1J
#330
0J
#335
1J
#340
0J
#345
1J
#350
0J
#355
1J
#360
0J
#365
1J
#370
0J
#375
1J
#380
0J
#385
1J
#390
0J
#395
1J
#400
0J
#405
1J
#410
0J
#415
1J
#420
0J
#425
1J
#430
0J
#435
1J
#440
0J
#445
1J
#450
0J
#455
1J
#460
0J
#465
1J
#470
0J
#475
1J
#480
0J
#485
1J
#490
0J
#495
1J
#500
0J
#505
1J
#510
0J
#515
1J
#520
0J
#525
1J
#530
0J
#535
1J
#540
0J
#545
1J
#550
0J
#555
1J
#560
0J
#565
1J
#570
0J
#575
1J
#580
0J
#585
1J
#590
0J
#595
1J
#600
0J
#605
1J
#610
0J
#615
1J
#620
0J
#625
1J
#630
0J
#635
1J
#640
0J
#645
1J
#650
0J
#655
1J
#660
0J
#665
1J
#670
0J
#675
1J
#680
0J
#685
1J
#690
0J
#695
1J
#700
0J
#705
1J
#710
0J
#715
1J
#720
0J
#725
1J
#730
0J
#735
1J
#740
0J
#745
1J
#750
0J
#755
1J
#760
0J
#765
1J
#770
0J
#775
1J
#780
0J
#785
1J
#790
0J
#795
1J
#800
0J
#805
1J
#810
0J
#815
1J
#820
0J
#825
1J
#830
0J
#835
1J
#840
0J
#845
1J
#850
0J
#855
1J
#860
0J
#865
1J
#870
0J
#875
1J
#880
0J
#885
1J
#890
0J
#895
1J
#900
0J
#905
1J
#910
0J
#915
1J
#920
0J
#925
1J
#930
0J
#935
1J
#940
0J
#945
1J
#950
0J
#955
1J
#960
0J
#965
1J
#970
0J
#975
1J
#980
0J
#985
1J
#990
0J
#995
1J
#1000
0J
1P
#1005
1J
#1010
0J
#1015
1J
#1020
0J
#1025
1J
#1030
0J
#1035
1J
#1040
0J
#1045
1J
#1050
0J
#1055
1J
#1060
0J
#1065
1J
#1070
0J
#1075
1J
#1080
0J
#1085
1J
#1090
0J
#1095
1J
#1100
0J
#1105
1J
#1110
0J
#1115
1J
#1120
0J
#1125
1J
#1130
0J
#1135
1J
#1140
0J
#1145
1J
#1150
0J
#1155
1J
#1160
0J
#1165
1J
#1170
0J
#1175
1J
#1180
0J
#1185
1J
#1190
0J
#1195
1J
#1200
0J
#1205
1J
#1210
0J
#1215
1J
#1220
0J
#1225
1J
#1230
0J
#1235
1J
#1240
0J
#1245
1J
#1250
0J
#1255
1J
#1260
0J
#1265
1J
#1270
0J
#1275
1J
#1280
0J
#1285
1J
#1290
0J
#1295
1J
#1300
0J
#1305
1J
#1310
0J
#1315
1J
#1320
0J
#1325
1J
#1330
0J
#1335
1J
#1340
0J
#1345
1J
#1350
0J
#1355
1J
#1360
0J
#1365
1J
#1370
0J
#1375
1J
#1380
0J
#1385
1J
#1390
0J
#1395
1J
#1400
0J
#1405
1J
#1410
0J
#1415
1J
#1420
0J
#1425
1J
#1430
0J
#1435
1J
#1440
0J
#1445
1J
#1450
0J
#1455
1J
#1460
0J
#1465
1J
#1470
0J
#1475
1J
#1480
0J
#1485
1J
#1490
0J
#1495
1J
#1500
0J
#1505
1J
#1510
0J
#1515
1J
#1520
0J
#1525
1J
#1530
0J
#1535
1J
#1540
0J
#1545
1J
#1550
0J
#1555
1J
#1560
0J
#1565
1J
#1570
0J
#1575
1J
#1580
0J
#1585
1J
#1590
0J
#1595
1J
#1600
0J
#1605
1J
#1610
0J
#1615
1J
#1620
0J
#1625
1J
#1630
0J
#1635
1J
#1640
0J
#1645
1J
#1650
0J
#1655
1J
#1660
0J
#1665
1J
#1670
0J
#1675
1J
#1680
0J
#1685
1J
#1690
0J
#1695
1J
#1700
0J
#1705
1J
#1710
0J
#1715
1J
#1720
0J
#1725
1J
#1730
0J
#1735
1J
#1740
0J
#1745
1J
#1750
0J
#1755
1J
#1760
0J
#1765
1J
#1770
0J
#1775
1J
#1780
0J
#1785
1J
#1790
0J
#1795
1J
#1800
0J
#1805
1J
#1810
0J
#1815
1J
#1820
0J
#1825
1J
#1830
0J
#1835
1J
#1840
0J
#1845
1J
#1850
0J
#1855
1J
#1860
0J
#1865
1J
#1870
0J
#1875
1J
#1880
0J
#1885
1J
#1890
0J
#1895
1J
#1900
0J
#1905
1J
#1910
0J
#1915
1J
#1920
0J
#1925
1J
#1930
0J
#1935
1J
#1940
0J
#1945
1J
#1950
0J
#1955
1J
#1960
0J
#1965
1J
#1970
0J
#1975
1J
#1980
0J
#1985
1J
#1990
0J
#1995
1J
#2000
0J
b111111111111111111111111111101111 }
b111111111111110111110011010101000 x
b11111100110011010 |
b11001100110 {
b11001100110 Q
b11001100110 s
b0 y
b0 K
b0 o
r0.1 X
r0 Z
#2005
1J
#2010
0J
1S
#2015
b1111111111101111 $
b1111111111101111 v
b1111111111101111 !"
1J
#2020
0J
0S
b0 _
r0 a
r0 b
r-0.1 \
#2025
1J
#2030
0J
#2035
1J
#2040
0J
#2045
1J
#2050
0J
#2055
1J
#2060
0J
#2065
1J
#2070
0J
#2075
1J
#2080
0J
#2085
1J
#2090
0J
#2095
1J
#2100
0J
#2105
1J
#2110
0J
#2115
1J
#2120
0J
#2125
1J
#2130
0J
#2135
1J
#2140
0J
#2145
1J
#2150
0J
#2155
1J
#2160
0J
#2165
1J
#2170
0J
#2175
1J
#2180
0J
#2185
1J
#2190
0J
#2195
1J
#2200
0J
#2205
1J
#2210
0J
#2215
1J
#2220
0J
#2225
1J
#2230
0J
#2235
1J
#2240
0J
#2245
1J
#2250
0J
#2255
1J
#2260
0J
#2265
1J
#2270
0J
#2275
1J
#2280
0J
#2285
1J
#2290
0J
#2295
1J
#2300
0J
#2305
1J
#2310
0J
#2315
1J
#2320
0J
#2325
1J
#2330
0J
#2335
1J
#2340
0J
#2345
1J
#2350
0J
#2355
1J
#2360
0J
#2365
1J
#2370
0J
#2375
1J
#2380
0J
#2385
1J
#2390
0J
#2395
1J
#2400
0J
#2405
1J
#2410
0J
#2415
1J
#2420
0J
#2425
1J
#2430
0J
#2435
1J
#2440
0J
#2445
1J
#2450
0J
#2455
1J
#2460
0J
#2465
1J
#2470
0J
#2475
1J
#2480
0J
#2485
1J
#2490
0J
#2495
1J
#2500
0J
#2505
1J
#2510
0J
#2515
1J
#2520
0J
#2525
1J
#2530
0J
#2535
1J
#2540
0J
#2545
1J
#2550
0J
#2555
1J
#2560
0J
#2565
1J
#2570
0J
#2575
1J
#2580
0J
#2585
1J
#2590
0J
#2595
1J
#2600
0J
#2605
1J
#2610
0J
#2615
1J
#2620
0J
#2625
1J
#2630
0J
#2635
1J
#2640
0J
#2645
1J
#2650
0J
#2655
1J
#2660
0J
#2665
1J
#2670
0J
#2675
1J
#2680
0J
#2685
1J
#2690
0J
#2695
1J
#2700
0J
#2705
1J
#2710
0J
#2715
1J
#2720
0J
#2725
1J
#2730
0J
#2735
1J
#2740
0J
#2745
1J
#2750
0J
#2755
1J
#2760
0J
#2765
1J
#2770
0J
#2775
1J
#2780
0J
#2785
1J
#2790
0J
#2795
1J
#2800
0J
#2805
1J
#2810
0J
#2815
1J
#2820
0J
#2825
1J
#2830
0J
#2835
1J
#2840
0J
#2845
1J
#2850
0J
#2855
1J
#2860
0J
#2865
1J
#2870
0J
#2875
1J
#2880
0J
#2885
1J
#2890
0J
#2895
1J
#2900
0J
#2905
1J
#2910
0J
#2915
1J
#2920
0J
#2925
1J
#2930
0J
#2935
1J
#2940
0J
#2945
1J
#2950
0J
#2955
1J
#2960
0J
#2965
1J
#2970
0J
#2975
1J
#2980
0J
#2985
1J
#2990
0J
#2995
1J
#3000
0J
#3005
1J
#3010
0J
#3015
1J
#3020
0J
#3025
1J
#3030
0J
#3035
1J
#3040
0J
#3045
1J
#3050
0J
#3055
1J
#3060
0J
#3065
1J
#3070
0J
#3075
1J
#3080
0J
#3085
1J
#3090
0J
#3095
1J
#3100
0J
#3105
1J
#3110
0J
#3115
1J
#3120
0J
#3125
1J
#3130
0J
#3135
1J
#3140
0J
#3145
1J
#3150
0J
#3155
1J
#3160
0J
#3165
1J
#3170
0J
#3175
1J
#3180
0J
#3185
1J
#3190
0J
#3195
1J
#3200
0J
#3205
1J
#3210
0J
#3215
1J
#3220
0J
#3225
1J
#3230
0J
#3235
1J
#3240
0J
#3245
1J
#3250
0J
#3255
1J
#3260
0J
#3265
1J
#3270
0J
#3275
1J
#3280
0J
#3285
1J
#3290
0J
#3295
1J
#3300
0J
#3305
1J
#3310
0J
#3315
1J
#3320
0J
#3325
1J
#3330
0J
#3335
1J
#3340
0J
#3345
1J
#3350
0J
#3355
1J
#3360
0J
#3365
1J
#3370
0J
#3375
1J
#3380
0J
#3385
1J
#3390
0J
#3395
1J
#3400
0J
#3405
1J
#3410
0J
#3415
1J
#3420
0J
#3425
1J
#3430
0J
#3435
1J
#3440
0J
#3445
1J
#3450
0J
#3455
1J
#3460
0J
#3465
1J
#3470
0J
#3475
1J
#3480
0J
#3485
1J
#3490
0J
#3495
1J
#3500
0J
#3505
1J
#3510
0J
#3515
1J
#3520
0J
#3525
1J
#3530
0J
#3535
1J
#3540
0J
#3545
1J
#3550
0J
#3555
1J
#3560
0J
#3565
1J
#3570
0J
#3575
1J
#3580
0J
#3585
1J
#3590
0J
#3595
1J
#3600
0J
#3605
1J
#3610
0J
#3615
1J
#3620
0J
#3625
1J
#3630
0J
#3635
1J
#3640
0J
#3645
1J
#3650
0J
#3655
1J
#3660
0J
#3665
1J
#3670
0J
#3675
1J
#3680
0J
#3685
1J
#3690
0J
#3695
1J
#3700
0J
#3705
1J
#3710
0J
#3715
1J
#3720
0J
#3725
1J
#3730
0J
#3735
1J
#3740
0J
#3745
1J
#3750
0J
#3755
1J
#3760
0J
#3765
1J
#3770
0J
#3775
1J
#3780
0J
#3785
1J
#3790
0J
#3795
1J
#3800
0J
#3805
1J
#3810
0J
#3815
1J
#3820
0J
#3825
1J
#3830
0J
#3835
1J
#3840
0J
#3845
1J
#3850
0J
#3855
1J
#3860
0J
#3865
1J
#3870
0J
#3875
1J
#3880
0J
#3885
1J
#3890
0J
#3895
1J
#3900
0J
#3905
1J
#3910
0J
#3915
1J
#3920
0J
#3925
1J
#3930
0J
#3935
1J
#3940
0J
#3945
1J
#3950
0J
#3955
1J
#3960
0J
#3965
1J
#3970
0J
#3975
1J
#3980
0J
#3985
1J
#3990
0J
#3995
1J
#4000
0J
#4005
1J
#4010
0J
#4015
1J
#4020
0J
b0 }
b11111011001100110 |
b100110011010 {
b100110011010 Q
b100110011010 s
b111111111111111110110011001100000 z
b10000 y
b10000 K
b10000 o
b0 x
b0 w
b0 L
b0 p
r0.15 X
r0.001 Z
r0 [
#4025
1J
#4030
0J
1S
#4035
b0 $
b0 v
b111111111111111111111111111111101 }
b0 !"
b111111111111111110110011001100000 ~
1J
#4040
0J
0S
#4045
1J
#4050
0J
1S
b11111111111111111111111111111110 _
r-0.00015 a
r-0.00015 ^
r-0 b
r-0.15 \
#4055
b1111111111111101 $
b1111111111111101 v
b111111111111111111111111111111011 }
b1111111111111101 !"
b111111111111111101100110011000000 ~
1J
#4060
0J
1S
b11111111111111111111111111111011 _
r-0.0003 a
r-0.0003 ^
#4065
b1111111111111011 $
b1111111111111011 v
b111111111111111111111111111111000 }
b111111111111111100011001100100000 ~
b1111111111111011 !"
1J
#4070
0J
1S
b11111111111111111111111111111001 _
r-0.00045 a
r-0.00045 ^
#4075
b1111111111111000 $
b1111111111111000 v
b111111111111111111111111111110110 }
b1111111111111000 !"
b111111111111111011001100110000000 ~
1J
#4080
0J
1S
b11111111111111111111111111110110 _
r-0.0005999999999999999 a
r-0.0005999999999999999 ^
#4085
b1111111111110110 $
b1111111111110110 v
b111111111111111111111111111110011 }
b111111111111111001111111111100000 ~
b1111111111110110 !"
1J
#4090
0J
1S
b11111111111111111111111111110100 _
r-0.0007499999999999999 a
r-0.0007499999999999999 ^
#4095
b1111111111110011 $
b1111111111110011 v
b111111111111111111111111111110001 }
b1111111111110011 !"
b111111111111111000110011001000000 ~
1J
#4100
0J
1S
b11111111111111111111111111110001 _
r-0.0008999999999999999 a
r-0.0008999999999999999 ^
#4105
b1111111111110001 $
b1111111111110001 v
b111111111111111111111111111101111 }
b111111111111110111100110010100000 ~
b1111111111110001 !"
1J
#4110
0J
1S
b11111111111111111111111111101111 _
r-0.00105 a
r-0.00105 ^
#4115
b1111111111101111 $
b1111111111101111 v
b111111111111111111111111111101100 }
b1111111111101111 !"
b111111111111110110011001100000000 ~
1J
#4120
0J
1S
b11111111111111111111111111101100 _
r-0.0012 a
r-0.0012 ^
#4125
b1111111111101100 $
b1111111111101100 v
b111111111111111111111111111101010 }
b111111111111110101001100101100000 ~
b1111111111101100 !"
1J
#4130
0J
1S
b11111111111111111111111111101010 _
r-0.00135 a
r-0.00135 ^
#4135
b1111111111101010 $
b1111111111101010 v
b111111111111111111111111111100111 }
b1111111111101010 !"
b111111111111110011111111111000000 ~
1J
#4140
0J
1S
b11111111111111111111111111100111 _
r-0.0015 a
r-0.0015 ^
#4145
b1111111111100111 $
b1111111111100111 v
b111111111111111111111111111100101 }
b111111111111110010110011000100000 ~
b1111111111100111 !"
1J
#4150
0J
1S
b11111111111111111111111111100101 _
r-0.00165 a
r-0.00165 ^
#4155
b1111111111100101 $
b1111111111100101 v
b111111111111111111111111111100011 }
b1111111111100101 !"
b111111111111110001100110010000000 ~
1J
#4160
0J
1S
b11111111111111111111111111100011 _
r-0.0018 a
r-0.0018 ^
#4165
b1111111111100011 $
b1111111111100011 v
b111111111111111111111111111100000 }
b111111111111110000011001011100000 ~
b1111111111100011 !"
1J
#4170
0J
1S
b11111111111111111111111111100000 _
r-0.00195 a
r-0.00195 ^
#4175
b1111111111100000 $
b1111111111100000 v
b111111111111111111111111111011110 }
b1111111111100000 !"
b111111111111101111001100101000000 ~
1J
#4180
0J
1S
b11111111111111111111111111011110 _
r-0.0021 a
r-0.0021 ^
#4185
b1111111111011110 $
b1111111111011110 v
b111111111111111111111111111011011 }
b111111111111101101111111110100000 ~
b1111111111011110 !"
1J
#4190
0J
1S
b11111111111111111111111111011011 _
r-0.00225 a
r-0.00225 ^
#4195
b1111111111011011 $
b1111111111011011 v
b111111111111111111111111111011001 }
b1111111111011011 !"
b111111111111101100110011000000000 ~
1J
#4200
0J
1S
b11111111111111111111111111011001 _
r-0.0024 a
r-0.0024 ^
#4205
b1111111111011001 $
b1111111111011001 v
b111111111111111111111111111010111 }
b111111111111101011100110001100000 ~
b1111111111011001 !"
1J
#4210
0J
1S
b11111111111111111111111111010110 _
r-0.00255 a
r-0.00255 ^
#4215
b1111111111010111 $
b1111111111010111 v
b111111111111111111111111111010100 }
b1111111111010111 !"
b111111111111101010011001011000000 ~
1J
#4220
0J
1S
b11111111111111111111111111010100 _
r-0.0027 a
r-0.0027 ^
#4225
b1111111111010100 $
b1111111111010100 v
b111111111111111111111111111010010 }
b111111111111101001001100100100000 ~
b1111111111010100 !"
1J
#4230
0J
1S
b11111111111111111111111111010001 _
r-0.00285 a
r-0.00285 ^
#4235
b1111111111010010 $
b1111111111010010 v
b111111111111111111111111111001111 }
b1111111111010010 !"
b111111111111100111111111110000000 ~
1J
#4240
0J
1S
b11111111111111111111111111001111 _
r-0.003 a
r-0.003 ^
#4245
b1111111111001111 $
b1111111111001111 v
b111111111111111111111111111001101 }
b111111111111100110110010111100000 ~
b1111111111001111 !"
1J
#4250
0J
1S
b11111111111111111111111111001100 _
r-0.00315 a
r-0.00315 ^
#4255
b1111111111001101 $
b1111111111001101 v
b111111111111111111111111111001011 }
b1111111111001101 !"
b111111111111100101100110001000000 ~
1J
#4260
0J
1S
b11111111111111111111111111001010 _
r-0.0033 a
r-0.0033 ^
#4265
b1111111111001011 $
b1111111111001011 v
b111111111111111111111111111001000 }
b111111111111100100011001010100000 ~
b1111111111001011 !"
1J
#4270
0J
1S
b11111111111111111111111111000111 _
r-0.00345 a
r-0.00345 ^
#4275
b1111111111001000 $
b1111111111001000 v
b111111111111111111111111111000110 }
b1111111111001000 !"
b111111111111100011001100100000000 ~
1J
#4280
0J
1S
b11111111111111111111111111000101 _
r-0.003599999999999999 a
r-0.003599999999999999 ^
#4285
b1111111111000110 $
b1111111111000110 v
b111111111111111111111111111000011 }
b111111111111100001111111101100000 ~
b1111111111000110 !"
1J
#4290
0J
1S
b11111111111111111111111111000011 _
r-0.003749999999999999 a
r-0.003749999999999999 ^
#4295
b1111111111000011 $
b1111111111000011 v
b111111111111111111111111111000001 }
b1111111111000011 !"
b111111111111100000110010111000000 ~
1J
#4300
0J
1S
b11111111111111111111111111000000 _
r-0.003899999999999999 a
r-0.003899999999999999 ^
#4305
b1111111111000001 $
b1111111111000001 v
b111111111111111111111111110111111 }
b111111111111011111100110000100000 ~
b1111111111000001 !"
1J
#4310
0J
1S
b11111111111111111111111110111110 _
r-0.00405 a
r-0.00405 ^
#4315
b1111111110111111 $
b1111111110111111 v
b111111111111111111111111110111100 }
b1111111110111111 !"
b111111111111011110011001010000000 ~
1J
#4320
0J
1S
b11111111111111111111111110111011 _
r-0.0042 a
r-0.0042 ^
#4325
b1111111110111100 $
b1111111110111100 v
b111111111111111111111111110111010 }
b111111111111011101001100011100000 ~
b1111111110111100 !"
1J
#4330
0J
1S
b11111111111111111111111110111001 _
r-0.00435 a
r-0.00435 ^
#4335
b1111111110111010 $
b1111111110111010 v
b111111111111111111111111110110111 }
b1111111110111010 !"
b111111111111011011111111101000000 ~
1J
#4340
0J
1S
b11111111111111111111111110110110 _
r-0.0045 a
r-0.0045 ^
#4345
b1111111110110111 $
b1111111110110111 v
b111111111111111111111111110110101 }
b111111111111011010110010110100000 ~
b1111111110110111 !"
1J
#4350
0J
1S
b11111111111111111111111110110100 _
r-0.00465 a
r-0.00465 ^
#4355
b1111111110110101 $
b1111111110110101 v
b111111111111111111111111110110011 }
b1111111110110101 !"
b111111111111011001100110000000000 ~
1J
#4360
0J
1S
b11111111111111111111111110110001 _
r-0.0048 a
r-0.0048 ^
#4365
b1111111110110011 $
b1111111110110011 v
b111111111111111111111111110110000 }
b111111111111011000011001001100000 ~
b1111111110110011 !"
1J
#4370
0J
1S
b11111111111111111111111110101111 _
r-0.00495 a
r-0.00495 ^
#4375
b1111111110110000 $
b1111111110110000 v
b111111111111111111111111110101110 }
b1111111110110000 !"
b111111111111010111001100011000000 ~
1J
#4380
0J
1S
b11111111111111111111111110101100 _
r-0.005099999999999999 a
r-0.005099999999999999 ^
#4385
b1111111110101110 $
b1111111110101110 v
b111111111111111111111111110101011 }
b111111111111010101111111100100000 ~
b1111111110101110 !"
1J
#4390
0J
1S
b11111111111111111111111110101010 _
r-0.005249999999999999 a
r-0.005249999999999999 ^
#4395
b1111111110101011 $
b1111111110101011 v
b111111111111111111111111110101001 }
b1111111110101011 !"
b111111111111010100110010110000000 ~
1J
#4400
0J
1S
b11111111111111111111111110101000 _
r-0.005399999999999999 a
r-0.005399999999999999 ^
#4405
b1111111110101001 $
b1111111110101001 v
b111111111111111111111111110100111 }
b111111111111010011100101111100000 ~
b1111111110101001 !"
1J
#4410
0J
1S
b11111111111111111111111110100101 _
r-0.005549999999999999 a
r-0.005549999999999999 ^
#4415
b1111111110100111 $
b1111111110100111 v
b111111111111111111111111110100100 }
b1111111110100111 !"
b111111111111010010011001001000000 ~
1J
#4420
0J
1S
b11111111111111111111111110100011 _
r-0.005699999999999999 a
r-0.005699999999999999 ^
#4425
b1111111110100100 $
b1111111110100100 v
b111111111111111111111111110100010 }
b111111111111010001001100010100000 ~
b1111111110100100 !"
1J
#4430
0J
1S
b11111111111111111111111110100000 _
r-0.005849999999999999 a
r-0.005849999999999999 ^
#4435
b1111111110100010 $
b1111111110100010 v
b111111111111111111111111110011111 }
b1111111110100010 !"
b111111111111001111111111100000000 ~
1J
#4440
0J
1S
b11111111111111111111111110011110 _
r-0.005999999999999999 a
r-0.005999999999999999 ^
#4445
b1111111110011111 $
b1111111110011111 v
b111111111111111111111111110011101 }
b111111111111001110110010101100000 ~
b1111111110011111 !"
1J
#4450
0J
1S
b11111111111111111111111110011011 _
r-0.006149999999999999 a
r-0.006149999999999999 ^
#4455
b1111111110011101 $
b1111111110011101 v
b111111111111111111111111110011011 }
b1111111110011101 !"
b111111111111001101100101111000000 ~
1J
#4460
0J
1S
b11111111111111111111111110011001 _
r-0.006299999999999999 a
r-0.006299999999999999 ^
#4465
b1111111110011011 $
b1111111110011011 v
b111111111111111111111111110011000 }
b111111111111001100011001000100000 ~
b1111111110011011 !"
1J
#4470
0J
1S
b11111111111111111111111110010110 _
r-0.006449999999999999 a
r-0.006449999999999999 ^
#4475
b1111111110011000 $
b1111111110011000 v
b111111111111111111111111110010110 }
b1111111110011000 !"
b111111111111001011001100010000000 ~
1J
#4480
0J
1S
b11111111111111111111111110010100 _
r-0.006599999999999999 a
r-0.006599999999999999 ^
#4485
b1111111110010110 $
b1111111110010110 v
b111111111111111111111111110010011 }
b111111111111001001111111011100000 ~
b1111111110010110 !"
1J
#4490
0J
1S
b11111111111111111111111110010001 _
r-0.006749999999999999 a
r-0.006749999999999999 ^
#4495
b1111111110010011 $
b1111111110010011 v
b111111111111111111111111110010001 }
b1111111110010011 !"
b111111111111001000110010101000000 ~
1J
#4500
0J
1S
b11111111111111111111111110001111 _
r-0.006899999999999999 a
r-0.006899999999999999 ^
#4505
b1111111110010001 $
b1111111110010001 v
b111111111111111111111111110001111 }
b111111111111000111100101110100000 ~
b1111111110010001 !"
1J
#4510
0J
1S
b11111111111111111111111110001100 _
r-0.007049999999999999 a
r-0.007049999999999999 ^
#4515
b1111111110001111 $
b1111111110001111 v
b111111111111111111111111110001100 }
b1111111110001111 !"
b111111111111000110011001000000000 ~
1J
#4520
0J
1S
b11111111111111111111111110001010 _
r-0.007199999999999999 a
r-0.007199999999999999 ^
#4525
b1111111110001100 $
b1111111110001100 v
b111111111111111111111111110001010 }
b111111111111000101001100001100000 ~
b1111111110001100 !"
1J
#4530
0J
1S
b11111111111111111111111110001000 _
r-0.007349999999999999 a
r-0.007349999999999999 ^
#4535
b1111111110001010 $
b1111111110001010 v
b111111111111111111111111110000111 }
b1111111110001010 !"
b111111111111000011111111011000000 ~
1J
#4540
0J
1S
b11111111111111111111111110000101 _
r-0.007499999999999999 a
r-0.007499999999999999 ^
#4545
b1111111110000111 $
b1111111110000111 v
b111111111111111111111111110000101 }
b111111111111000010110010100100000 ~
b1111111110000111 !"
1J
#4550
0J
1S
b11111111111111111111111110000011 _
r-0.007649999999999999 a
r-0.007649999999999999 ^
#4555
b1111111110000101 $
b1111111110000101 v
b111111111111111111111111110000011 }
b1111111110000101 !"
b111111111111000001100101110000000 ~
1J
#4560
0J
1S
b11111111111111111111111110000000 _
r-0.007799999999999999 a
r-0.007799999999999999 ^
#4565
b1111111110000011 $
b1111111110000011 v
b111111111111111111111111110000000 }
b111111111111000000011000111100000 ~
b1111111110000011 !"
1J
#4570
0J
1S
b11111111111111111111111101111110 _
r-0.007949999999999999 a
r-0.007949999999999999 ^
#4575
b1111111110000000 $
b1111111110000000 v
b111111111111111111111111101111110 }
b1111111110000000 !"
b111111111110111111001100001000000 ~
1J
#4580
0J
1S
b11111111111111111111111101111011 _
r-0.0081 a
r-0.0081 ^
#4585
b1111111101111110 $
b1111111101111110 v
b111111111111111111111111101111011 }
b111111111110111101111111010100000 ~
b1111111101111110 !"
1J
#4590
0J
1S
b11111111111111111111111101111001 _
r-0.00825 a
r-0.00825 ^
#4595
b1111111101111011 $
b1111111101111011 v
b111111111111111111111111101111001 }
b1111111101111011 !"
b111111111110111100110010100000000 ~
1J
#4600
0J
1S
b11111111111111111111111101110110 _
r-0.008400000000000001 a
r-0.008400000000000001 ^
#4605
b1111111101111001 $
b1111111101111001 v
b111111111111111111111111101110111 }
b111111111110111011100101101100000 ~
b1111111101111001 !"
1J
#4610
0J
1S
b11111111111111111111111101110100 _
r-0.008550000000000002 a
r-0.008550000000000002 ^
#4615
b1111111101110111 $
b1111111101110111 v
b111111111111111111111111101110100 }
b1111111101110111 !"
b111111111110111010011000111000000 ~
1J
